The kh3d package • kh3d
…
The core of the code was copied from sthda and than modified.

Currently this is a one function package, providing the funtion kh3_plot() which will takes a 3-column tibble (with the columns x,y & z) and plots the according 3d surface.

library(kh3d)

n_steps <- 13
wave <- tibble(x = 2*pi*(1:n_steps)/n_steps,
               y = x) %>%
  purrr::cross_df() %>%
  mutate( z = sin(x)*sin(y))

wave

## # A tibble: 169 x 3
##        x     y      z
##    <dbl> <dbl>  <dbl>
##  1 0.483 0.483  0.216
##  2 0.967 0.483  0.382
##  3 1.45  0.483  0.461
##  4 1.93  0.483  0.435
##  5 2.42  0.483  0.308
##  6 2.90  0.483  0.111
##  7 3.38  0.483 -0.111
##  8 3.87  0.483 -0.308
##  9 4.35  0.483 -0.435
## 10 4.83  0.483 -0.461
## # … with 159 more rows
…
